{
"from": "2019-12-31",
"until": "2020-03-31",
"data": [
{
"name": "CP - celkovy pocet prujezdu cyklistu", 
"result": "600884"
}
,
{
"name": "MD - den s maximalnim poctem prujezdu cyklistu", 
"date": "2020-03-28",
"result": "25982"
}
,
{
"name": "CPD - pocet prujezdu cyklistu za den", 
"result": [
{"date": "2019-12-31", "value": "29"}
,
{"date": "2020-01-01", "value": "4492"}
,
{"date": "2020-01-02", "value": "3142"}
,
{"date": "2020-01-03", "value": "3949"}
,
{"date": "2020-01-04", "value": "3336"}
,
{"date": "2020-01-05", "value": "4818"}
,
{"date": "2020-01-06", "value": "4901"}
,
{"date": "2020-01-07", "value": "5148"}
,
{"date": "2020-01-08", "value": "4906"}
,
{"date": "2020-01-09", "value": "4479"}
,
{"date": "2020-01-10", "value": "6579"}
,
{"date": "2020-01-11", "value": "4784"}
,
{"date": "2020-01-12", "value": "5495"}
,
{"date": "2020-01-13", "value": "6101"}
,
{"date": "2020-01-14", "value": "6840"}
,
{"date": "2020-01-15", "value": "6940"}
,
{"date": "2020-01-16", "value": "6688"}
,
{"date": "2020-01-17", "value": "6219"}
,
{"date": "2020-01-18", "value": "3072"}
,
{"date": "2020-01-19", "value": "3751"}
,
{"date": "2020-01-20", "value": "4575"}
,
{"date": "2020-01-21", "value": "5026"}
,
{"date": "2020-01-22", "value": "5176"}
,
{"date": "2020-01-23", "value": "7938"}
,
{"date": "2020-01-24", "value": "4636"}
,
{"date": "2020-01-25", "value": "3681"}
,
{"date": "2020-01-26", "value": "5326"}
,
{"date": "2020-01-27", "value": "4234"}
,
{"date": "2020-01-28", "value": "3625"}
,
{"date": "2020-01-29", "value": "4282"}
,
{"date": "2020-01-30", "value": "4540"}
,
{"date": "2020-01-31", "value": "4580"}
,
{"date": "2020-02-01", "value": "7601"}
,
{"date": "2020-02-02", "value": "4283"}
,
{"date": "2020-02-03", "value": "5012"}
,
{"date": "2020-02-04", "value": "2381"}
,
{"date": "2020-02-05", "value": "3980"}
,
{"date": "2020-02-06", "value": "4729"}
,
{"date": "2020-02-07", "value": "5482"}
,
{"date": "2020-02-08", "value": "7081"}
,
{"date": "2020-02-09", "value": "8410"}
,
{"date": "2020-02-10", "value": "1774"}
,
{"date": "2020-02-11", "value": "2828"}
,
{"date": "2020-02-12", "value": "3102"}
,
{"date": "2020-02-13", "value": "4633"}
,
{"date": "2020-02-14", "value": "4104"}
,
{"date": "2020-02-15", "value": "5661"}
,
{"date": "2020-02-16", "value": "6809"}
,
{"date": "2020-02-17", "value": "5365"}
,
{"date": "2020-02-18", "value": "6074"}
,
{"date": "2020-02-19", "value": "4026"}
,
{"date": "2020-02-20", "value": "6180"}
,
{"date": "2020-02-21", "value": "6455"}
,
{"date": "2020-02-22", "value": "10921"}
,
{"date": "2020-02-23", "value": "5977"}
,
{"date": "2020-02-24", "value": "9898"}
,
{"date": "2020-02-25", "value": "4272"}
,
{"date": "2020-02-26", "value": "4974"}
,
{"date": "2020-02-27", "value": "4754"}
,
{"date": "2020-02-28", "value": "3559"}
,
{"date": "2020-02-29", "value": "2734"}
,
{"date": "2020-03-01", "value": "8591"}
,
{"date": "2020-03-02", "value": "7991"}
,
{"date": "2020-03-03", "value": "2603"}
,
{"date": "2020-03-04", "value": "6732"}
,
{"date": "2020-03-05", "value": "7876"}
,
{"date": "2020-03-06", "value": "4931"}
,
{"date": "2020-03-07", "value": "2909"}
,
{"date": "2020-03-08", "value": "11213"}
,
{"date": "2020-03-09", "value": "6364"}
,
{"date": "2020-03-10", "value": "6629"}
,
{"date": "2020-03-11", "value": "2542"}
,
{"date": "2020-03-12", "value": "8355"}
,
{"date": "2020-03-13", "value": "9514"}
,
{"date": "2020-03-14", "value": "14164"}
,
{"date": "2020-03-15", "value": "18923"}
,
{"date": "2020-03-16", "value": "11699"}
,
{"date": "2020-03-17", "value": "12134"}
,
{"date": "2020-03-18", "value": "17645"}
,
{"date": "2020-03-19", "value": "14498"}
,
{"date": "2020-03-20", "value": "11615"}
,
{"date": "2020-03-21", "value": "2654"}
,
{"date": "2020-03-22", "value": "4905"}
,
{"date": "2020-03-23", "value": "7057"}
,
{"date": "2020-03-24", "value": "8726"}
,
{"date": "2020-03-25", "value": "9226"}
,
{"date": "2020-03-26", "value": "9242"}
,
{"date": "2020-03-27", "value": "18586"}
,
{"date": "2020-03-28", "value": "25982"}
,
{"date": "2020-03-29", "value": "8635"}
,
{"date": "2020-03-30", "value": "7086"}
]
}
,
{
"name": "PP - prumer prujezdu cyklistu za den", 
"result": "6603"
}
]
}
